autor,tytuł,czasopismo,tytuł_całości,miejsce_wyd,wydawca,rok,strony,p-issn,p-isbn,doi,typ.form,typ.mer
"Osińska Veslava","Wizualizować potrafi każdy; czy jednak robi to poprawnie?","","","","","2021","nr 2 (197); S. 1-8","","","","dokument elektroniczny","artykuł popularnonaukowy polski"
"Osiński Grzegorz; Osińska Veslava","Infografiki i wizualizacje jako metody prezentacji i analizy danych.","","Cyfrowy świat młodego odkrywcy / red. Ilona Nowosad, Anna Rakowska.","Toruń","Wyższa Szkoła Kultury Społecznej i Medialnej","2021","S. 7-23","","","","fragment/rozdział ze zbiorówki","fragment naukowy z książki polskiej"
"Osińska Veslava","A qualitative-quantitative study of science mapping by different algorithms; the Polish journals landscape.","","","","","2021","Vol. 47 no. 3; S. 359-372","0165-5515","","10.1177/0165551520902738; 10.1177/0165551520902738","artykuł/recenzja z czasopisma","artykuł naukowy zagraniczny"
"Sokolov Oleksandr; Osińska Veslava; Mreła Aleksandra; Duch Włodzisław; Burak Marcin","Scientists' contribution to science and methods of its visualization.","","Information systems architecture and technology; proceedings of 40th International Conference on Information Systems Architecture and Technology, ISAT 2019. Part 2 / eds.: Jerzy Świątek, Leszek Borzemski, Zofia Wilimowska.","Cham","Springer International Publishing","2020","S. 159-168","2194-5357","978-3-030-30603-8","10.1007/978-3-030-30604-5_14; 10.1007/978-3-030-30604-5_14","fragment/rozdział ze zbiorówki","referat w materiałach z konferencji, zjazdu zagraniczny"
"Osińska Veslava; Osiński Grzegorz","Eye tracking experiment using book covers; visual data analysis in reference to mind space mapping.","","","","","2020","Vol. 9 no. 1; S. 143-154","","","","artykuł/recenzja z czasopisma","artykuł naukowy zagraniczny"
"Sokolov Oleksandr; Osińska Wiesława; Mreła Aleksandra; Duch Włodzisław","Modeling of scientific publications disciplinary collocation based on optimistic fuzzy aggregation norms.","","Information systems architecture and technology; proceedings of 39th International Conference on Information Systems Architecture and Technology, ISAT 2018. Part 2 / eds.: Jerzy Świątek, Leszek Borzemski, Zofia Wilimowska.","Cham","Springer International Publishing","2019","S. 145-153","2194-5357","978-3-319-99995-1","10.1007/978-3-319-99996-8_14; 10.1007/978-3-319-99996-8_14","fragment/rozdział ze zbiorówki","referat w materiałach z konferencji, zjazdu zagraniczny"
"Osińska Veslava; Matusiak Krystyna K.; Kowalska Małgorzata; Bednarek-Michalska Bożena; Malak Piotr","Distribution of date elements and its relationship to the types of digital libraries; analysing aggregated metadata of a Polish large-scale distributed system.","","","","","2019","Vol. 51 no. 3; S. 710-720","0961-0006","","10.1177/0961000617742460; 10.1177/0961000617742460","artykuł/recenzja z czasopisma","artykuł naukowy zagraniczny"
"Osiński Grzegorz; Osińska Veslava; Malak Piotr","PCA algorithms in the visualization of Big Data from Polish digital libraries.","","Multimedia and Network Information Systems; proceedings of the 11th International Conference, MISSI 2018 / eds.: Kazimierz Choroś [et al.].","Cham","Springer International Publishing","2019","S. 522-532","2194-5357","978-3-319-98677-7","10.1007/978-3-319-98678-4_52; 10.1007/978-3-319-98678-4_52","fragment/rozdział ze zbiorówki","referat w materiałach z konferencji, zjazdu zagraniczny"
"Osińska Veslava; Sokolov Oleksandr; Mreła Aleksandra","Nonlinear estimation of similarity between scientists' disciplinary profiles; case study.","","","","","2019","nr 2a (114a); S. 12-27","0324-8194","","10.36702/zin.467; 10.36702/zin.467","artykuł/recenzja z czasopisma","artykuł naukowy polski"
"Kowalska-Chrzanowska Małgorzata; Bednarek-Michalska Bożena; Malak Piotr; Osińska Veslava","Problemy zarządzania informacją o polskich bibliotekach i repozytoriach cyfrowych; implikacje płynące z jakości metadanych.","","Zarządzanie informacją = Information management / pod red. nauk. Wiesława Babika.","Warszawa","Wydawnictwo Naukowe i Edukacyjne Stowarzyszenia Bibliotekarzy Polskich","2019","S. 414-434","","978-83-65741-47-9","","fragment/rozdział ze zbiorówki","fragment naukowy z książki polskiej"
"Osiński Grzegorz; Osińska Veslava","Rola percepcji wizualnej w zarządzaniu i projektowaniu struktur informacji.","","Zarządzanie informacją = Information management / pod red. nauk. Wiesława Babika.","Warszawa","Wydawnictwo Naukowe i Edukacyjne Stowarzyszenia Bibliotekarzy Polskich","2019","S. 385-413","","978-83-65741-47-9","","fragment/rozdział ze zbiorówki","fragment naukowy z książki polskiej"
"Osiński Grzegorz; Osińska Veslava; Camacho Brian","Scientific Visualizer in personal information management.","","12th International Conference on Digital Information Management, ICDIM 2017, 12-14 September 2017, Fukuoka, Japan.","[Piscataway, NJ]","IEEE Xplore","2018","S. 269-272","","978-1-5386-0665-0","10.1109/ICDIM.2017.8244674; 10.1109/ICDIM.2017.8244674","fragment/rozdział ze zbiorówki","referat w materiałach z konferencji, zjazdu zagraniczny"
"Osińska Veslava; Osiński Grzegorz","Information visualization techniques in the social sciences and humanities; [eds.:] Veslava Osińska and Grzegorz Osiński.","","","Hershey, PA","IGI Global","2018","XXV, 356 s.","","978-1-5225-4990-1","10.4018/978-1-5225-4990-1; 10.4018/978-1-5225-4990-1","książka (autor lub redakcja)","redakcja, wybór, opracowanie polskie"
"Osińska Veslava","Visualizing the scientific information nowadays; the problems and challenges.","","","","","2018","Vol. 1 no. 1; S. [1-10]","","","","artykuł/recenzja z czasopisma","artykuł naukowy polski"
"Osińska Veslava; Osiński Grzegorz","Shapes and patterns in visualizing human knowledge. Part 2: Digital visualisation techniques.","","Information visualization techniques in the social sciences and humanities / [eds.:] Veslava Osińska and Grzegorz Osiński.","Hershey, PA","IGI Global","2018","S. 17-31","","978-1-5225-4990-1","","fragment/rozdział ze zbiorówki","fragment naukowy z książki zagranicznej"
"Osiński Grzegorz; Osińska Veslava","Preface.","","Information visualization techniques in the social sciences and humanities / [eds.:] Veslava Osińska and Grzegorz Osiński.","Hershey, PA","IGI Global","2018","S. XVII-XXIV","","978-1-5225-4990-1","","fragment/rozdział ze zbiorówki","przedmowa, wstęp, posłowie, nota red. zagraniczna"
"Osiński Grzegorz; Osińska Veslava","Shapes and patterns in visualizing human knowledge. Part 1: Origin from a historical and cognitive perspective.","","Information visualization techniques in the social sciences and humanities / [eds.:] Veslava Osińska and Grzegorz Osiński.","Hershey, PA","IGI Global","2018","S. 1-16","","978-1-5225-4990-1","10.4018/978-1-5225-4990-1.ch001; 10.4018/978-1-5225-4990-1.ch001","fragment/rozdział ze zbiorówki","fragment naukowy z książki zagranicznej"
"Osińska Veslava; Kowalska Małgorzata; Osiński Zbigniew","The role of visualization in the shaping and exploration of the individual information space. Part 1.","","","","","2018","Vol. 45 no. 7; S. 547-558","0943-7444","","10.5771/0943-7444-2018-7-547; 10.5771/0943-7444-2018-7-547","artykuł/recenzja z czasopisma","artykuł naukowy zagraniczny"
"Kowalska Małgorzata; Osińska Veslava","Bazy danych i wizualizatory dorobku naukowego jako narzędzia oceny produktywności naukowej.","","","","","2018","nr 2; S. 93-114","1231-8515","","","artykuł/recenzja z czasopisma","artykuł naukowy polski"
"Osiński Grzegorz; Osińska Veslava; Niedźwiecka-Ambroziak Julita; Krysiński Przemysław; Szalach Adam","Analiza wizualna układów kompozycyjnych okładek książek metodą eye trackingu.","","","","","2018","R. 86 z. 3; S. 403-421","0033-202X","","","artykuł/recenzja z czasopisma","artykuł naukowy polski"
"Malak Piotr; Osińska Veslava; Osiński Grzegorz; Bednarek-Michalska Bożena","Metoda rozszerzonej oceny współpracy badawczej i produkcji naukowej jednostek; raport z badań.","","","","","2018","nr 2 (21); S. 9-28","2080-1807","","10.12775/TSB.2018.011; 10.12775/TSB.2018.011","artykuł/recenzja z czasopisma","artykuł naukowy polski"
"Osiński Grzegorz; Osińska Veslava","Feigenbaum scaling factor in semantic fields study of memes concept.","","7th International Conference on Nonlinear Dynamics and Complexity (NDC 2017), July 3-5, 2017, Łódź, Poland; post-conference materials / eds. Piotr Ostalczyk, Jacek Nowakowski, Marcin Bąkała, Wojciech Bieniecki.","Łódź","Wydawnictwo Politechniki Łódzkiej","2017","S. 1-10","","978-83-7283-870-4","","fragment/rozdział ze zbiorówki","fragment naukowy z książki polskiej"
"Osińska Veslava","Gephi; nowoczesne narzędzie do wizualizacji danych bibliometrycznych.","","","","","2017","nr 3 (173); S. 1-8","","","","dokument elektroniczny","artykuł naukowy polski"
"Osińska Veslava","Sprawozdanie z konferencji ISSI 2017 w Wuhan, Chiny.","","","","","2017","nr 6 (176); S. 1-3","","","","dokument elektroniczny","sprawozdanie z badań, konferencji, zjazdu zagraniczne"
"Osińska Veslava","Mapy nauki w analizach porównawczych jednostek UMK.","","","","","2017","R. 26 nr 1; S. 26-28","1230-9710","","","artykuł/recenzja z czasopisma","artykuł popularny, prasowy polski"
"Szalach Adam; Osińska Veslava","Koncepcja wykorzystania eyetrackingu w korelacji nauczania informatyki oraz przedmiotów przyrodniczych.","","Informatyka w edukacji; wokół nowej podstawy informatyki / red.: Anna Beata Kwiatkowska, Maciej M. Sysło.","Toruń","Wydawnictwo Naukowe Uniwersytetu Mikołaja Kopernika","2017","S. 207-216","","978-83-231-3854-9","","fragment/rozdział ze zbiorówki","fragment naukowy z książki polskiej"
"Szalach Adam; Osińska Veslava","Sieciowe kompendium książki; wizualizacja informacji.","","","","","2017","Nr 2","","","","artykuł/recenzja z czasopisma","artykuł naukowy polski"
"Osińska Veslava; Malak Piotr","Bibliometric research of faculties based on local databases.","","Proceedings of ISSI 2017 Wuhan; 16th International Conference on Scientometrics and Informetrics, Wuhan, China, 16-20 October, 2017, Wuhan University : conference proceedings.","[Wuhan","Wuhan University]; [International Society for Scientometrics and Infometrics]","2017","S. 1807-1808","2175-1935","","","fragment/rozdział ze zbiorówki","referat w materiałach z konferencji, zjazdu zagraniczny"
"Kowalska Małgorzata; Osińska Veslava","Wizualizacja informacji w humanistyce; pod red. Małgorzaty Kowalskiej i Veslavy Osińskiej.","","","Toruń","Wydawnictwo Naukowe Uniwersytetu Mikołaja Kopernika","2017","326 s.","","978-83-231-3884-6","","książka (autor lub redakcja)","redakcja, wybór, opracowanie polskie"
"Osińska Veslava; Malak Piotr","Dynamiczne sieci społeczne; projektowanie i analizy.","","Wsparcie kształcenia informatycznego w szkołach; materiały pokonferencyjne / red. Maciej M. Sysło, Anna Beata Kwiatkowska.","Toruń","Wydawnictwo Naukowe Uniwersytetu Mikołaja Kopernika","2017","S. 376-387","","978-83-231-3784-9","","fragment/rozdział ze zbiorówki","fragment naukowy z książki polskiej"
"Malak Piotr; Osińska Veslava; Bednarek-Michalska Bożena","Jakość wybranych elementów metadanych stosowanych w polskich bibliotekach i repozytoriach cyfrowych.","","","","","2017","nr 1 (109); S. 97-123","0324-8194","","","artykuł/recenzja z czasopisma","artykuł naukowy polski"
"Osińska Veslava; Bednarek-Michalska Bożena","Międzynarodowa Konferencja 'Wizualizacja informacji w humanistyce', Toruń, 23-24 marca 2017.","","","","","2017","nr 1 (109); S. 178-181","0324-8194","","","artykuł/recenzja z czasopisma","sprawozdanie z badań, konferencji, zjazdu polskie"
"Osińska Veslava; Kowalska Małgorzata; Bednarek-Michalska Bożena; Malak Piotr","Czas uwolnienia zasobów a dynamika rozwoju i profil polskich bibliotek cyfrowych.","","","","","2017","T. 53 z. 1; S. 3-27","0044-1619","","","artykuł/recenzja z czasopisma","artykuł naukowy polski"
"Osińska Veslava; Malak Piotr; Bednarek-Michalska Bożena","Rozwój badań nad wizualizacją informacji.","","","","","2016","Vol. 14; S. 58-76","2081-1861","","10.24917/20811861.14.4; 10.24917/20811861.14.4","artykuł/recenzja z czasopisma","artykuł naukowy polski"
"Osińska Veslava; Osiński Grzegorz; Kwiatkowska Anna Beata","Visualization in learning; perception, aesthetics and pragmatism.","","Big data; concepts, methodologies, tools, and applications.","Hershey, PA","Information Science Reference","2016","S. 493-524","","978-1-4666-9840-6","","fragment/rozdział ze zbiorówki","fragment naukowy z książki zagranicznej"
"Osińska Veslava; Malak Piotr; Bednarek-Michalska Bożena","Badanie struktury i dynamiki zasobów cyfrowej wiedzy przy pomocy metod wizualizacji; projekt realizowany na UMK.","","Humanistyka cyfrowa; badanie tekstów, obrazów i dźwięku / pod red. Radosława Bomby, Andrzeja Radomskiego, Ewy Solskiej.","Lublin","e-naukowiec","2016","S. 8-17","","","","fragment/rozdział ze zbiorówki","fragment naukowy z książki polskiej"
"Osińska Veslava; Malak Piotr","Dynamiczne sieci społeczne; projektowanie i analizy.","","Informatyka w edukacji; kształcenie informatyczne i programowanie dla wszystkich uczniów / red.: Anna Beata Kwiatkowska, Maciej M. Sysło.","Toruń","Wydawnictwo Naukowe Uniwersytetu Mikołaja Kopernika; Polskie Towarzystwo Informatyczne","2016","S. 268-379","","978-83-231-3585-2","","fragment/rozdział ze zbiorówki","fragment naukowy z książki polskiej"
"Osińska Veslava; Malak Piotr","Maps and mapping in scientometrics.","","Metody i narzędzia badań piśmiennictwa cyfrowego i jego użytkowników / pod red. Małgorzaty Góralskiej i Agnieszki Wandel.","Wrocław","Wydawnictwo Uniwersytetu Wrocławskiego","2016","S. 59-73","","978-83-229-3514-9","","fragment/rozdział ze zbiorówki","fragment naukowy z książki polskiej"
"Osińska Veslava","Prezentacja informacji.","","Nauka o informacji = Information science / pod red. Wiesława Babika.","Warszawa","Stowarzyszenie Bibliotekarzy Polskich","2016","S. 577-598","","978-83-64203-82-4","","fragment/rozdział ze zbiorówki","fragment naukowy z książki polskiej"
"Osińska Veslava; Malak Piotr; Bednarek-Michalska Bożena","Mapy informacji w zarządzaniu relewantnością zasobów sieciowych.","","","","","2016","T. 22 nr 2-3; S. 15-30","1230-5529","","","artykuł/recenzja z czasopisma","artykuł naukowy polski"
"Osińska Veslava","Wizualizacja informacji; studium informatologiczne.","","","Toruń","Wydawnictwo Naukowe Uniwersytetu Mikołaja Kopernika","2016","187 s.","","978-83-231-3581-4","","książka (autor lub redakcja)","książka naukowa polska"
"Osiński Grzegorz; Osińska Veslava","Wizualizacja, jako narzędzie badawcze historyka; w poszukiwaniu korzeni patrona 70-letniego Uniwersytetu.","","","","","2015","nr 1 (155); S. 1-9","","","","dokument elektroniczny","artykuł naukowy polski"
"Osińska Veslava","Mapy nauki jako medium integracyjne w środowiskach akademickich; komunikat z wystawy Places & Spaces towarzyszącej konferencji 'Wizualizacja w naukach komputerowych' w WSKSiM 21 V 2014 r.","","Człowiek i cyberprzestrzeń.","Toruń","Wyższa Szkoła Kultury Społecznej i Medialnej","2015","S. 337-344","2392-1463","978-83-7631-652-9","","fragment/rozdział ze zbiorówki","sprawozd. z działalności, wyjazdów, wystaw polskie"
"Osińska Veslava","Przyszłość naukometrii.","","","","","2015","R. 24 nr 8-9; S. 14-15","","","","artykuł/recenzja z czasopisma","sprawozdanie z badań, konferencji, zjazdu polskie"
"Osińska Veslava; Osiński Grzegorz; Kwiatkowska Anna Beata","Visualization in learning; perception, aesthetics and pragmatism.","","Handbook of research on maximizing cognitive learning through knowledge visualization / ed.: Anna Ursyn.","Hershey, PA","Information Science Reference","2015","S. 381-414","","978-1-4666-8142-2","","fragment/rozdział ze zbiorówki","fragment naukowy z książki zagranicznej"
"Osińska Veslava; Bała Piotr","Study of dynamics of structured knowledge; qualitative analysis of different mapping approaches.","","","","","2015","Vol. 41 no. 2; S. 197-208","0165-5515","","10.1177/0165551514559897; 10.1177/0165551514559897","artykuł/recenzja z czasopisma","artykuł naukowy zagraniczny"
"Osińska Veslava; Osiński Grzegorz; Komendziński Tomasz","Altmetrics and visualisation; the complementary tools for analysing scientific collaboration and behaviour on ResearchGate.","","","","","2015","nr 4 (110); S. 117-133","1230-266X","","10.15804/kie.2015.04.07; 10.15804/kie.2015.04.07","artykuł/recenzja z czasopisma","artykuł naukowy polski"
"Osińska Veslava; Osiński Grzegorz; Tomaszewski Wojciech","Modelling of scientific collaboration based on graphical analysis.","","Proceedings of ISSI 2015 Istanbul; 15th International Society of Scientometrics and Informetrics Conference, Istanbul, Turkey, 29 June to 3 July, 2015, Bogaziçi University Printhouse / eds.: Albert Ali Salah [et al.].","Istanbul","Bogaziçi University","2015","S. 1257-1258","2175-1935","978-975-518-381-7","","fragment/rozdział ze zbiorówki","referat w materiałach z konferencji, zjazdu zagraniczny"
"Osińska Veslava; Jóźwik Adam; Osiński Grzegorz","Mapping evaluation for semantic browsing.","","Proceedings of the 2015 Federated Conference on Computer Science and Information Systems, September 13-16, 2015, Łódź, Poland / eds.: Maria Ganzha, Leszek Maciaszek, Marcin Paprzycki.","Warszawa","Polskie Towarzystwo Informatyczne; Institute of Electrical and Electronics Engineers","2015","S. 329-335","","978-83-60810-65-1","10.15439/2015F50; 10.15439/2015F50","fragment/rozdział ze zbiorówki","referat w materiałach z konferencji, zjazdu polski"
"Osińska Veslava","Mapujemy naukę.","","","","","2014","R. 23 nr 8-9; S. 31-32","","","","artykuł/recenzja z czasopisma","artykuł popularny, prasowy polski"
"Osiński Grzegorz; Osińska Veslava","Wizualizacja informacji w nauczaniu przedmiotów przyrodniczych.","","","","","2014","Nr 52; S. 3-8","","","","artykuł/recenzja z czasopisma","artykuł naukowy polski"
"Osińska Veslava","The Functional Art : an introduction to information graphics and visualization / Alberto Cairo. Berkeley 2012.","","","","","2014","nr 2 (13); S. 207-209","2080-1807","","10.12775/TSB.2014.025; 10.12775/TSB.2014.025","artykuł/recenzja z czasopisma","recenzja, polemika, omówienie w publ. pol."
"Osińska Veslava; Komendziński Tomasz","Naukowcy na Facebooku; wizualizacja sieci społecznych w nauce.","","Współczesne oblicza komunikacji i informacji; problemy, badania, hipotezy / red.: Ewa Głowacka, Małgorzata Kowalska, Przemysław Krysiński.","Toruń","Wydawnictwo Naukowe Uniwersytetu Mikołaja Kopernika","2014","S. 269-281","","978-83-231-3175-5","","fragment/rozdział ze zbiorówki","fragment naukowy z książki polskiej"
"Osińska Veslava","Wystawa 'Wizualizacja nauki' w przestrzeni edukacyjnej biblioteki.","","Biblioteka w przestrzeni edukacyjnej; funkcje i wyzwania w XXI wieku / red. nauk. Stanisław Skórka, współpr. Ewa Piotrowska.","Kraków","Wydawnictwo Naukowe Uniwersytetu Pedagogicznego","2013","S. 227-232","","978-83-7271-804-4","","fragment/rozdział ze zbiorówki","sprawozd. z działalności, wyjazdów, wystaw polskie"
"Osińska Veslava; Dreszer-Drogorób Joanna; Osiński Grzegorz; Gawarkiewicz Michał","Cognitive approach in classification visualization; end-users study.","","Classification & visualization; interfaces to knowledge : proceedings of the International UDC Seminar, 24-25 October 2013, The Hague, The Netherlands / ed. by Aida Slavic, Almila Akdag Salah, Sylvie Davies.","Würzburg","Ergon Verlag","2013","S. 273-281","","978-3-95650-007-7","","fragment/rozdział ze zbiorówki","fragment naukowy z książki zagranicznej"
"Osińska Veslava","Visual mining czyli eksploracja informacji za pomocą graficznych reprezentacji.","","","","","2013","T. 21 nr 3; S. 3-11","1230-5529","","","artykuł/recenzja z czasopisma","artykuł naukowy polski"
"Osińska Veslava","Rola mechanizmów wizualizacyjnych w architekturze informacji.","","","","","2013","nr 2 (11); S. 81-96","2080-1807","","10.12775/TSB.2013.023; 10.12775/TSB.2013.023","artykuł/recenzja z czasopisma","artykuł naukowy polski"
"Osińska Veslava; Osiński Grzegorz","Wizualizacja informacji w edukacji.","","Informatyka w edukacji; w drodze do e-nauczyciela / red. Anna Beata Kwiatkowska.","Toruń","Wydawnictwo Naukowe Uniwersytetu Mikołaja Kopernika","2012","S. 59-66","","","","fragment/rozdział ze zbiorówki","fragment naukowy z książki polskiej"
"Osińska Veslava","Fractal analysis of knowledge organization in digital library.","","New trends in qualitive and quantitative methods in libraries; selected papers presented at the 2nd Qualitative and Quantitative Methods in Libraries : proceedings of the International Conference on QQML2010 Chania, Crete, Greece, 25 - 28 May 2010 / eds.: Anthi Katsirikou, Christos Skiadas.","Singapore","World Scientific Publishing","2012","S. 17-23","","978-981-4350-29-7","","fragment/rozdział ze zbiorówki","fragment naukowy z książki zagranicznej"
"Osińska Veslava; Bała Piotr; Gawarkiewicz Michał","Information retrieval across information visualization.","","Proceedings of the Federated Conference on Computer Science and Information Systems (FedCSIS), September, 9-12, 2012, Wrocław, Poland / eds.: M. Ganzha, L. Maciaszek, M. Paprzycki.","Warsaw","Polskie Towarzystwo Informatyczne","2012","S. 233-239","","978-83-60810-51-4","","fragment/rozdział ze zbiorówki","referat w materiałach z konferencji, zjazdu polski"
"Osińska Veslava","Wizualizacja paradygmatów badawczych.","","","","","2012","T. 49 z. 3; S. 205-220","","","","artykuł/recenzja z czasopisma","artykuł naukowy polski"
"Osińska Veslava","Visual analysis of classification scheme.","","","","","2010","Vol. 37 no. 4; S. 299-306","","","","artykuł/recenzja z czasopisma","artykuł naukowy zagraniczny"
"Osińska Veslava; Bała Piotr","New methods for visualization and improvement of classification schemes; the case of Computer Science.","","","","","2010","Vol. 37 no. 3; S. 157-172","","","","artykuł/recenzja z czasopisma","artykuł naukowy zagraniczny"
"Osińska Veslava","Wizualizacja i wyszukiwanie dokumentów.","","","Warszawa","Wydawnictwo SBP","2010","183 s.","","","","książka (autor lub redakcja)","książka naukowa polska"
"Osińska Veslava","Rozwój metod mapowania domen naukowych i potencjał analityczny w nim zawarty.","","","","","2010","nr 2 (96); S. 41-51","","","","artykuł/recenzja z czasopisma","artykuł naukowy polski"
"Osińska Veslava; Bała Piotr","Nonlinear approach in classification visualization and evaluation.","","IX Congress ISKO-Spain, Valencia 11th, 12th, 13th March 2009; new perspectives for the organisation and dissemination of knowledge.","[Valencia]","International Society for Knowledge Organization","2009","S. 257-269","","","","dokument elektroniczny","referat w materiałach z konferencji, zjazdu zagraniczny"
"Osińska Veslava; Bała Piotr","Classification visualization across mapping on a sphere.","","New trends in multimedia and network information systems / ed. by Aleksander Zgrzywa, Kazimierz Choroś and Andrzej Siemiński.","Amsterdam [etc.]","IOS Press","2008","S. 95-106","","","","fragment/rozdział ze zbiorówki","fragment naukowy z książki zagranicznej"
"Osińska Veslava","Wizualizacja i mapowanie przestrzeni danych w bibliotekach cyfrowych.","","","","","2008","nr 1; S. 167-176","","","","artykuł/recenzja z czasopisma","artykuł naukowy polski"
"Osińska Veslava","Praktyczne implementacje formatu SVG.","","V Konferencja 'Informatyka w Edukacji' - IwE 2008, Toruń, 3-6 lipca 2008 / red. nauk. Anna Beata Kwiatkowska, Maciej M. Sysło.","Wrocław","Agencja Wydawnicza Argi","2008","S. 238-244","","","","fragment/rozdział ze zbiorówki","referat w materiałach z konferencji, zjazdu polski"
"Osińska Veslava","Dynamika historycznego rozwoju stron www.","","","","","2007","nr 7 (88)","","","","dokument elektroniczny","artykuł naukowy polski"
"Osińska Veslava","Przybliżenie semantyczne w wizualizacji informacji w Internecie i bibliotekach cyfrowych.","","","","","2006","nr 7 (77)","","","","dokument elektroniczny","artykuł naukowy polski"
"Osińska Veslava","Szczegółowa klasyfikacja przedmiotowa nauk komputerowych w kontekście zawartości zasobów sieciowych.","","Kierunki i priorytety rozwoju informacji naukowej w kontekście budowania społeczeństwa wiedzy = Trends and priorities of the development of the information science in the context of creation of the knowledge-based society / pod red. Diany Pietruch-Reizes i Wiesława Babika.","Katowice","Polskie Towarzystwo Informacji Naukowej","2006","S. 132-138","","","","fragment/rozdział ze zbiorówki","fragment naukowy z książki polskiej"
"Osińska Veslava","Współczesna problematyka sposobów klasyfikacji informatyki; kierunki rozwoju.","","Ogólnopolska konferencja na temat 'Opracowanie przedmiotowe dokumentów z zakresu nauk ścisłych matematyczno-przyrodniczych i technicznych; język haseł przedmiotowych KABA : teoria, praktyka, przyszłość', Kazimierz Dolny, 20-22 września 2006.","[Warszawa]","Stowarzyszenie Bibliotekarzy Polskich. Komisja Wydawnictw Elektronicznych","2006","[8] s.","","","","dokument elektroniczny","referat w materiałach z konferencji, zjazdu polski"
"Osińska Veslava","Aktualne metody wizualizacji uporządkowanej informacji.","","","","","2006","nr 1 (87); S. 64-74","0324-8194","","","artykuł/recenzja z czasopisma","artykuł naukowy polski"
"Osińska Veslava; Osiński Grzegorz","Multimedia.","","","Toruń","Wydawnictwo Uniwersytetu Mikołaja Kopernika","2005","1 dysk optyczny (CD-ROM) + broszura 33 s.","","83-231-1802-7","","dokument elektroniczny","podręcznik (nieakad.), skrypt, ćwicz. lub fragm. polski"
"Osińska Veslava","Praktyczne aspekty optymalizacji multimediów w prezentacjach.","","Multimedialne i sieciowe systemy informacyjne; materiały konferencyjne. Vol. 1 / pod red. Czesława Daniłowicza.","Wrocław","Oficyna Wydawnicza Politechniki Wrocławskiej","2004","S. 247-256","","83-7085-807-4","","fragment/rozdział ze zbiorówki","fragment naukowy z książki polskiej"
"Osińska Veslava; Osiński Grzegorz","Technologia informatyczna; skrypt przeznaczony dla studentów I roku Bibliotekoznawstwa i Informacji Naukowej. Cz. 1.","","","Toruń","Wydawnictwo Uniwersytetu Mikołaja Kopernika","2001","89 s., [5] s. tabl. kolor.","","83-231-1322-X","","książka (autor lub redakcja)","podręcznik (nieakad.), skrypt, ćwicz. lub fragm. polski"
"Osińska Veslava; Osiński Grzegorz","Efektywne wyszukiwanie informacji w sieci WWW.","","","","","2000","Z. 4; S. 385-403","1505-3040","","","artykuł/recenzja z czasopisma","artykuł naukowy polski"
"Firszt Franciszek; Łęgowski Stanisław; Męczyńska Hanna; Oczkowski Hubert L.; Osińska Wiesława; Szatkowski Jacek; Paszkowicz Wojciech; Spolnik Zoya M.","Luminescence of Zn1-x MgxSe, Zn1-x MgxSe: Al and Zn1-x MgxSe:I mixed crystals grown by Bridgman method.","","","","","1996","Vol. 159 no. 1-4; S. 167-170","0022-0248","","10.1016/0022-0248(95)00785-7; 10.1016/0022-0248(95)00785-7","artykuł/recenzja z czasopisma","artykuł naukowy zagraniczny"
"Męczyńska Hanna; Łęgowski Stanisław; Dąbrowska Wiesława; Popielarski Marek; Ogielski Zbigniew; Zakrzewski Jacek","Luminescence quantum efficiency of Mn2+ states in ZnSe : Mn as studied by means of photoacoustic spectroscopy.","","","","","1993","Vol. 84 no. 4; S. 823-825","0587-4246","","","artykuł/recenzja z czasopisma","artykuł naukowy polski"
"Męczyńska Hanna; Łęgowski Stanisław; Dąbrowska Wiesława; Popielarski Marek; Ogielski Zbigniew; Zakrzewski Jacek","Luminescence quantum efficiency of Mn2+ states in ZnSe:Mn as studied by means of photoacoustic spectroscopy.","","XXII International School of Physics of Semiconducting Compounds, Jaszowiec 1993; abstract book.","Warszawa","Institute of Physics Polish Academy of Sciences","1993","S. 37","","","","fragment/rozdział ze zbiorówki","komunikat, streszcz. referatu, abstrakt, plakat polski"
